
default value for null_subscripts should be never

%GDE-I-GDUSEDEFS, Using defaults for Global Directory 
	##TEST_PATH##/mumps.gld

GDE> 
GDE> 
GDE> 
GDE> 
GDE> 

                                *** TEMPLATES ***
                                                                          Std      Inst
                                             Def      Rec   Key Null      Null     Freeze Qdb   Epoch              LOCK
 Region                                     Coll     Size  Size Subs      Coll Jnl on Err Rndwn Taper AutoDB Stats Crit
 ----------------------------------------------------------------------------------------------------------------------
 <default>                                     0      256    64 NEVER     Y    N   N      N     Y     N      Y     Sep

 Segment          Active              Acc Typ Block      Alloc Exten Options
 ------------------------------------------------------------------------------
 <default>          *                 BG  DYN  4096        100   100 GLOB =1024
                                                                     LOCK =  40
                                                                     RES  =   0
                                                                     ENCR = OFF
                                                                     MSLT =1024
                                                                     DALL = YES
                                                                     AIO  = OFF
 <default>                            MM  DYN  4096        100   100 DEFER
                                                                     LOCK =  40
                                                                     MSLT =1024
                                                                     DALL = YES

         *** NAMES ***
 Global                             Region
 ------------------------------------------------------------------------------
 *                                  DEFAULT
 A*                                 AREG
 a*                                 AREG

                                *** REGIONS ***
                                                                                               Std      Inst
                                 Dynamic                          Def      Rec   Key Null      Null     Freeze Qdb   Epoch              LOCK
 Region                          Segment                         Coll     Size  Size Subs      Coll Jnl on Err Rndwn Taper AutoDB Stats Crit
 -------------------------------------------------------------------------------------------------------------------------------------------
 AREG                            ASEG                               0      256    64 NEVER     Y    N   N      N     Y     N      Y     Sep
 DEFAULT                         DEFAULT                            0      256    64 NEVER     Y    N   N      N     Y     N      Y     Sep

                                *** SEGMENTS ***
 Segment                         File (def ext: .dat)Acc Typ Block      Alloc Exten Options
 -------------------------------------------------------------------------------------------
 ASEG                            a.dat               BG  DYN  4096        100   100 GLOB=1024
                                                                                    LOCK=  40
                                                                                    RES =   0
                                                                                    ENCR= OFF
                                                                                    MSLT=1024
                                                                                    DALL= YES
                                                                                    AIO = OFF
 DEFAULT                         mumps.dat           BG  DYN  4096        100   100 GLOB=1024
                                                                                    LOCK=  40
                                                                                    RES =   0
                                                                                    ENCR= OFF
                                                                                    MSLT=1024
                                                                                    DALL= YES
                                                                                    AIO = OFF

                                  *** MAP ***
   -  -  -  -  -  -  -  -  -  - Names -  -  - -  -  -  -  -  -  -
 From                            Up to                            Region / Segment / File(def ext: .dat)
 --------------------------------------------------------------------------------------------------------------------------
 %                               A                                REG = DEFAULT
                                                                  SEG = DEFAULT
                                                                  FILE = mumps.dat
 A                               B                                REG = AREG
                                                                  SEG = ASEG
                                                                  FILE = a.dat
 B                               a                                REG = DEFAULT
                                                                  SEG = DEFAULT
                                                                  FILE = mumps.dat
 a                               b                                REG = AREG
                                                                  SEG = ASEG
                                                                  FILE = a.dat
 b                               ...                              REG = DEFAULT
                                                                  SEG = DEFAULT
                                                                  FILE = mumps.dat
 LOCAL LOCKS                                                      REG = DEFAULT
                                                                  SEG = DEFAULT
                                                                  FILE = mumps.dat
GDE> 
%GDE-I-VERIFY, Verification OK

%GDE-I-GDCREATE, Creating Global Directory file 
	##TEST_PATH##/mumps.gld

null_subscript value modified to ALWAYS using GDE add command

%GDE-I-LOADGD, Loading Global Directory file 
	##TEST_PATH##/mumps.gld
%GDE-I-VERIFY, Verification OK


GDE> 
GDE> 
GDE> 
GDE> 

                                *** REGIONS ***
                                                                                               Std      Inst
                                 Dynamic                          Def      Rec   Key Null      Null     Freeze Qdb   Epoch              LOCK
 Region                          Segment                         Coll     Size  Size Subs      Coll Jnl on Err Rndwn Taper AutoDB Stats Crit
 -------------------------------------------------------------------------------------------------------------------------------------------
 BREG                            BSEG                               0      256    64 ALWAYS    Y    N   N      N     Y     N      Y     Sep
GDE> 
%GDE-I-NOACTION, Not updating Global Directory ##TEST_PATH##/mumps.gld

null_subscripts values are changed using GDE change command

%GDE-I-LOADGD, Loading Global Directory file 
	##TEST_PATH##/mumps.gld
%GDE-I-VERIFY, Verification OK


GDE> 
GDE> 

                                *** REGIONS ***
                                                                                               Std      Inst
                                 Dynamic                          Def      Rec   Key Null      Null     Freeze Qdb   Epoch              LOCK
 Region                          Segment                         Coll     Size  Size Subs      Coll Jnl on Err Rndwn Taper AutoDB Stats Crit
 -------------------------------------------------------------------------------------------------------------------------------------------
 AREG                            ASEG                               0      256    64 EXISTING  Y    N   N      N     Y     N      Y     Sep
GDE> 
GDE> 

                                *** REGIONS ***
                                                                                               Std      Inst
                                 Dynamic                          Def      Rec   Key Null      Null     Freeze Qdb   Epoch              LOCK
 Region                          Segment                         Coll     Size  Size Subs      Coll Jnl on Err Rndwn Taper AutoDB Stats Crit
 -------------------------------------------------------------------------------------------------------------------------------------------
 AREG                            ASEG                               0      256    64 ALWAYS    Y    N   N      N     Y     N      Y     Sep
GDE> 
GDE> 

                                *** REGIONS ***
                                                                                               Std      Inst
                                 Dynamic                          Def      Rec   Key Null      Null     Freeze Qdb   Epoch              LOCK
 Region                          Segment                         Coll     Size  Size Subs      Coll Jnl on Err Rndwn Taper AutoDB Stats Crit
 -------------------------------------------------------------------------------------------------------------------------------------------
 AREG                            ASEG                               0      256    64 NEVER     Y    N   N      N     Y     N      Y     Sep
GDE> 
%GDE-I-NOACTION, Not updating Global Directory ##TEST_PATH##/mumps.gld

null_subscripts modified using template command

%GDE-I-LOADGD, Loading Global Directory file 
	##TEST_PATH##/mumps.gld
%GDE-I-VERIFY, Verification OK


GDE> 
GDE> 

                                *** TEMPLATES ***
                                                                          Std      Inst
                                             Def      Rec   Key Null      Null     Freeze Qdb   Epoch              LOCK
 Region                                     Coll     Size  Size Subs      Coll Jnl on Err Rndwn Taper AutoDB Stats Crit
 ----------------------------------------------------------------------------------------------------------------------
 <default>                                     0      256    64 ALWAYS    Y    N   N      N     Y     N      Y     Sep

 Segment          Active              Acc Typ Block      Alloc Exten Options
 ------------------------------------------------------------------------------
 <default>          *                 BG  DYN  4096        100   100 GLOB =1024
                                                                     LOCK =  40
                                                                     RES  =   0
                                                                     ENCR = OFF
                                                                     MSLT =1024
                                                                     DALL = YES
                                                                     AIO  = OFF
 <default>                            MM  DYN  4096        100   100 DEFER
                                                                     LOCK =  40
                                                                     MSLT =1024
                                                                     DALL = YES
GDE> 
GDE> 

                                *** TEMPLATES ***
                                                                          Std      Inst
                                             Def      Rec   Key Null      Null     Freeze Qdb   Epoch              LOCK
 Region                                     Coll     Size  Size Subs      Coll Jnl on Err Rndwn Taper AutoDB Stats Crit
 ----------------------------------------------------------------------------------------------------------------------
 <default>                                     0      256    64 NEVER     Y    N   N      N     Y     N      Y     Sep

 Segment          Active              Acc Typ Block      Alloc Exten Options
 ------------------------------------------------------------------------------
 <default>          *                 BG  DYN  4096        100   100 GLOB =1024
                                                                     LOCK =  40
                                                                     RES  =   0
                                                                     ENCR = OFF
                                                                     MSLT =1024
                                                                     DALL = YES
                                                                     AIO  = OFF
 <default>                            MM  DYN  4096        100   100 DEFER
                                                                     LOCK =  40
                                                                     MSLT =1024
                                                                     DALL = YES
GDE> 
GDE> 

                                *** TEMPLATES ***
                                                                          Std      Inst
                                             Def      Rec   Key Null      Null     Freeze Qdb   Epoch              LOCK
 Region                                     Coll     Size  Size Subs      Coll Jnl on Err Rndwn Taper AutoDB Stats Crit
 ----------------------------------------------------------------------------------------------------------------------
 <default>                                     0      256    64 EXISTING  Y    N   N      N     Y     N      Y     Sep

 Segment          Active              Acc Typ Block      Alloc Exten Options
 ------------------------------------------------------------------------------
 <default>          *                 BG  DYN  4096        100   100 GLOB =1024
                                                                     LOCK =  40
                                                                     RES  =   0
                                                                     ENCR = OFF
                                                                     MSLT =1024
                                                                     DALL = YES
                                                                     AIO  = OFF
 <default>                            MM  DYN  4096        100   100 DEFER
                                                                     LOCK =  40
                                                                     MSLT =1024
                                                                     DALL = YES
GDE> 
GDE> 
GDE> 
GDE> 

                                *** REGIONS ***
                                                                                               Std      Inst
                                 Dynamic                          Def      Rec   Key Null      Null     Freeze Qdb   Epoch              LOCK
 Region                          Segment                         Coll     Size  Size Subs      Coll Jnl on Err Rndwn Taper AutoDB Stats Crit
 -------------------------------------------------------------------------------------------------------------------------------------------
 CREG                            CSEG                               0      256    64 EXISTING  Y    N   N      N     Y     N      Y     Sep
GDE> 
%GDE-I-NOACTION, Not updating Global Directory ##TEST_PATH##/mumps.gld

null_subs modified with illegeal values.should error out

%GDE-I-LOADGD, Loading Global Directory file 
	##TEST_PATH##/mumps.gld
%GDE-I-VERIFY, Verification OK


GDE> 
%GDE-E-VALUEBAD, TRUER is not a valid NULL_SUBSCRIPTS

GDE> 
%GDE-E-VALUEBAD, ALWAYSEVER is not a valid NULL_SUBSCRIPTS

GDE> 
%GDE-E-VALUEBAD, ALLOWME is not a valid NULL_SUBSCRIPTS

GDE> 
%GDE-I-NOACTION, Not updating Global Directory ##TEST_PATH##/mumps.gld

null_subs modified with old values & -nonull_subscript qualifier without value.Should pass

-null_subscript qualifier without value should fail

%GDE-I-LOADGD, Loading Global Directory file 
	##TEST_PATH##/mumps.gld
%GDE-I-VERIFY, Verification OK


GDE> 
GDE> 

                                *** REGIONS ***
                                                                                               Std      Inst
                                 Dynamic                          Def      Rec   Key Null      Null     Freeze Qdb   Epoch              LOCK
 Region                          Segment                         Coll     Size  Size Subs      Coll Jnl on Err Rndwn Taper AutoDB Stats Crit
 -------------------------------------------------------------------------------------------------------------------------------------------
 AREG                            ASEG                               0      256    64 NEVER     Y    N   N      N     Y     N      Y     Sep
GDE> 
GDE> 

                                *** REGIONS ***
                                                                                               Std      Inst
                                 Dynamic                          Def      Rec   Key Null      Null     Freeze Qdb   Epoch              LOCK
 Region                          Segment                         Coll     Size  Size Subs      Coll Jnl on Err Rndwn Taper AutoDB Stats Crit
 -------------------------------------------------------------------------------------------------------------------------------------------
 AREG                            ASEG                               0      256    64 NEVER     Y    N   N      N     Y     N      Y     Sep
GDE> 
GDE> 

                                *** REGIONS ***
                                                                                               Std      Inst
                                 Dynamic                          Def      Rec   Key Null      Null     Freeze Qdb   Epoch              LOCK
 Region                          Segment                         Coll     Size  Size Subs      Coll Jnl on Err Rndwn Taper AutoDB Stats Crit
 -------------------------------------------------------------------------------------------------------------------------------------------
 AREG                            ASEG                               0      256    64 ALWAYS    Y    N   N      N     Y     N      Y     Sep
GDE> 
%GDE-E-VALUEREQD, Qualifier NULL_SUBSCRIPTS requires a value

GDE> 
%GDE-I-NOACTION, Not updating Global Directory ##TEST_PATH##/mumps.gld

Now create the databases

%YDB-I-DBFILECREATED, Database file ##TEST_PATH##/a.dat created
%YDB-I-DBFILECREATED, Database file ##TEST_PATH##/mumps.dat created

modify null_subscripts using DSE CHANGE commands


File  	##TEST_PATH##/a.dat
Region	AREG

DSE> DSE> 
File            ##TEST_PATH##/a.dat
Region          AREG
##TEST_AWKDate/Time       [0-9][0-9]-[A-Z][A-Z][A-Z]-[0-9][0-9][0-9][0-9] [0-9][0-9]:[0-9][0-9]:[0-9][0-9] ..H = [5-9][0-9][0-9][0-9][0-9],[0-9]+.
  Access method                          BG  Global Buffers                1024
  Reserved Bytes                          0  Block size (in bytes)         4096
  Maximum record size                   256  Starting VBN                   513
  Maximum key size                       64  Total blocks            0x00000065
  Null subscripts                    ALWAYS  Free blocks             0x00000062
  Standard Null Collation              TRUE  Free space              0x00000000
  Last Record Backup     0x0000000000000001  Extension Count                100
  Last Database Backup   0x0000000000000001  Number of local maps             1
  Last Bytestream Backup 0x0000000000000001  Lock space              0x00000028
  In critical section            0x00000000  Timers pending                   0
  Cache freeze id                0x00000000  Flush timer            00:00:01:00
  Freeze match                   0x00000000  Flush trigger                  960
  Freeze online                       FALSE  Freeze online autorelease    FALSE
  Current transaction    0x0000000000000001  No. of writes/flush              7
  Maximum TN             0xFFFFFFFF83FFFFFF  Certified for Upgrade to        V6
  Maximum TN Warn        0xFFFFFFFD93FFFFFF  Desired DB Format               V6
  Master Bitmap Size                    496  Blocks to Upgrade       0x00000000
  Create in progress                  FALSE  Modified cache blocks            0
  Reference count                         1  Wait Disk                        0
  Journal State                    DISABLED
  Mutex Hard Spin Count                 128  Mutex Sleep Spin Count         128
  Mutex Queue Slots                    1024  KILLs in progress                0
  Replication State                     OFF  Region Seqno    0x0000000000000001
  Zqgblmod Seqno         0x0000000000000000  Zqgblmod Trans  0x0000000000000000
  Endian Format      ##FILTERED####ENDIAN##  Commit Wait Spin Count          16
  Database file encrypted      ##FILTERED##  Inst Freeze on Error         ##FILTERED##
  Spanning Node Absent         ##FILTERED##  Maximum Key Size Assured  ##FILTERED##
  Defer allocation             ##FILTERED##  Spin sleep time mask  ##FILTERED##
  Async IO                              OFF  WIP queue cache blocks           0
  DB is auto-created                  FALSE  DB shares gvstats             TRUE
  LOCK shares DB critical section     FALSE  Read Only                      OFF
  Recover interrupted                 FALSE
  Reorg Sleep Nanoseconds                 0
DSE> DSE> 
File            ##TEST_PATH##/a.dat
Region          AREG
##TEST_AWKDate/Time       [0-9][0-9]-[A-Z][A-Z][A-Z]-[0-9][0-9][0-9][0-9] [0-9][0-9]:[0-9][0-9]:[0-9][0-9] ..H = [5-9][0-9][0-9][0-9][0-9],[0-9]+.
  Access method                          BG  Global Buffers                1024
  Reserved Bytes                          0  Block size (in bytes)         4096
  Maximum record size                   256  Starting VBN                   513
  Maximum key size                       64  Total blocks            0x00000065
  Null subscripts                    ALWAYS  Free blocks             0x00000062
  Standard Null Collation              TRUE  Free space              0x00000000
  Last Record Backup     0x0000000000000001  Extension Count                100
  Last Database Backup   0x0000000000000001  Number of local maps             1
  Last Bytestream Backup 0x0000000000000001  Lock space              0x00000028
  In critical section            0x00000000  Timers pending                   0
  Cache freeze id                0x00000000  Flush timer            00:00:01:00
  Freeze match                   0x00000000  Flush trigger                  960
  Freeze online                       FALSE  Freeze online autorelease    FALSE
  Current transaction    0x0000000000000001  No. of writes/flush              7
  Maximum TN             0xFFFFFFFF83FFFFFF  Certified for Upgrade to        V6
  Maximum TN Warn        0xFFFFFFFD93FFFFFF  Desired DB Format               V6
  Master Bitmap Size                    496  Blocks to Upgrade       0x00000000
  Create in progress                  FALSE  Modified cache blocks            0
  Reference count                         1  Wait Disk                        0
  Journal State                    DISABLED
  Mutex Hard Spin Count                 128  Mutex Sleep Spin Count         128
  Mutex Queue Slots                    1024  KILLs in progress                0
  Replication State                     OFF  Region Seqno    0x0000000000000001
  Zqgblmod Seqno         0x0000000000000000  Zqgblmod Trans  0x0000000000000000
  Endian Format      ##FILTERED####ENDIAN##  Commit Wait Spin Count          16
  Database file encrypted      ##FILTERED##  Inst Freeze on Error         ##FILTERED##
  Spanning Node Absent         ##FILTERED##  Maximum Key Size Assured  ##FILTERED##
  Defer allocation             ##FILTERED##  Spin sleep time mask  ##FILTERED##
  Async IO                              OFF  WIP queue cache blocks           0
  DB is auto-created                  FALSE  DB shares gvstats             TRUE
  LOCK shares DB critical section     FALSE  Read Only                      OFF
  Recover interrupted                 FALSE
  Reorg Sleep Nanoseconds                 0
DSE> DSE> 
File            ##TEST_PATH##/a.dat
Region          AREG
##TEST_AWKDate/Time       [0-9][0-9]-[A-Z][A-Z][A-Z]-[0-9][0-9][0-9][0-9] [0-9][0-9]:[0-9][0-9]:[0-9][0-9] ..H = [5-9][0-9][0-9][0-9][0-9],[0-9]+.
  Access method                          BG  Global Buffers                1024
  Reserved Bytes                          0  Block size (in bytes)         4096
  Maximum record size                   256  Starting VBN                   513
  Maximum key size                       64  Total blocks            0x00000065
  Null subscripts                     NEVER  Free blocks             0x00000062
  Standard Null Collation              TRUE  Free space              0x00000000
  Last Record Backup     0x0000000000000001  Extension Count                100
  Last Database Backup   0x0000000000000001  Number of local maps             1
  Last Bytestream Backup 0x0000000000000001  Lock space              0x00000028
  In critical section            0x00000000  Timers pending                   0
  Cache freeze id                0x00000000  Flush timer            00:00:01:00
  Freeze match                   0x00000000  Flush trigger                  960
  Freeze online                       FALSE  Freeze online autorelease    FALSE
  Current transaction    0x0000000000000001  No. of writes/flush              7
  Maximum TN             0xFFFFFFFF83FFFFFF  Certified for Upgrade to        V6
  Maximum TN Warn        0xFFFFFFFD93FFFFFF  Desired DB Format               V6
  Master Bitmap Size                    496  Blocks to Upgrade       0x00000000
  Create in progress                  FALSE  Modified cache blocks            0
  Reference count                         1  Wait Disk                        0
  Journal State                    DISABLED
  Mutex Hard Spin Count                 128  Mutex Sleep Spin Count         128
  Mutex Queue Slots                    1024  KILLs in progress                0
  Replication State                     OFF  Region Seqno    0x0000000000000001
  Zqgblmod Seqno         0x0000000000000000  Zqgblmod Trans  0x0000000000000000
  Endian Format      ##FILTERED####ENDIAN##  Commit Wait Spin Count          16
  Database file encrypted      ##FILTERED##  Inst Freeze on Error         ##FILTERED##
  Spanning Node Absent         ##FILTERED##  Maximum Key Size Assured  ##FILTERED##
  Defer allocation             ##FILTERED##  Spin sleep time mask  ##FILTERED##
  Async IO                              OFF  WIP queue cache blocks           0
  DB is auto-created                  FALSE  DB shares gvstats             TRUE
  LOCK shares DB critical section     FALSE  Read Only                      OFF
  Recover interrupted                 FALSE
  Reorg Sleep Nanoseconds                 0
DSE> DSE> 
File            ##TEST_PATH##/a.dat
Region          AREG
##TEST_AWKDate/Time       [0-9][0-9]-[A-Z][A-Z][A-Z]-[0-9][0-9][0-9][0-9] [0-9][0-9]:[0-9][0-9]:[0-9][0-9] ..H = [5-9][0-9][0-9][0-9][0-9],[0-9]+.
  Access method                          BG  Global Buffers                1024
  Reserved Bytes                          0  Block size (in bytes)         4096
  Maximum record size                   256  Starting VBN                   513
  Maximum key size                       64  Total blocks            0x00000065
  Null subscripts                     NEVER  Free blocks             0x00000062
  Standard Null Collation              TRUE  Free space              0x00000000
  Last Record Backup     0x0000000000000001  Extension Count                100
  Last Database Backup   0x0000000000000001  Number of local maps             1
  Last Bytestream Backup 0x0000000000000001  Lock space              0x00000028
  In critical section            0x00000000  Timers pending                   0
  Cache freeze id                0x00000000  Flush timer            00:00:01:00
  Freeze match                   0x00000000  Flush trigger                  960
  Freeze online                       FALSE  Freeze online autorelease    FALSE
  Current transaction    0x0000000000000001  No. of writes/flush              7
  Maximum TN             0xFFFFFFFF83FFFFFF  Certified for Upgrade to        V6
  Maximum TN Warn        0xFFFFFFFD93FFFFFF  Desired DB Format               V6
  Master Bitmap Size                    496  Blocks to Upgrade       0x00000000
  Create in progress                  FALSE  Modified cache blocks            0
  Reference count                         1  Wait Disk                        0
  Journal State                    DISABLED
  Mutex Hard Spin Count                 128  Mutex Sleep Spin Count         128
  Mutex Queue Slots                    1024  KILLs in progress                0
  Replication State                     OFF  Region Seqno    0x0000000000000001
  Zqgblmod Seqno         0x0000000000000000  Zqgblmod Trans  0x0000000000000000
  Endian Format      ##FILTERED####ENDIAN##  Commit Wait Spin Count          16
  Database file encrypted      ##FILTERED##  Inst Freeze on Error         ##FILTERED##
  Spanning Node Absent         ##FILTERED##  Maximum Key Size Assured  ##FILTERED##
  Defer allocation             ##FILTERED##  Spin sleep time mask  ##FILTERED##
  Async IO                              OFF  WIP queue cache blocks           0
  DB is auto-created                  FALSE  DB shares gvstats             TRUE
  LOCK shares DB critical section     FALSE  Read Only                      OFF
  Recover interrupted                 FALSE
  Reorg Sleep Nanoseconds                 0
DSE> DSE> 
File            ##TEST_PATH##/a.dat
Region          AREG
##TEST_AWKDate/Time       [0-9][0-9]-[A-Z][A-Z][A-Z]-[0-9][0-9][0-9][0-9] [0-9][0-9]:[0-9][0-9]:[0-9][0-9] ..H = [5-9][0-9][0-9][0-9][0-9],[0-9]+.
  Access method                          BG  Global Buffers                1024
  Reserved Bytes                          0  Block size (in bytes)         4096
  Maximum record size                   256  Starting VBN                   513
  Maximum key size                       64  Total blocks            0x00000065
  Null subscripts                  EXISTING  Free blocks             0x00000062
  Standard Null Collation              TRUE  Free space              0x00000000
  Last Record Backup     0x0000000000000001  Extension Count                100
  Last Database Backup   0x0000000000000001  Number of local maps             1
  Last Bytestream Backup 0x0000000000000001  Lock space              0x00000028
  In critical section            0x00000000  Timers pending                   0
  Cache freeze id                0x00000000  Flush timer            00:00:01:00
  Freeze match                   0x00000000  Flush trigger                  960
  Freeze online                       FALSE  Freeze online autorelease    FALSE
  Current transaction    0x0000000000000001  No. of writes/flush              7
  Maximum TN             0xFFFFFFFF83FFFFFF  Certified for Upgrade to        V6
  Maximum TN Warn        0xFFFFFFFD93FFFFFF  Desired DB Format               V6
  Master Bitmap Size                    496  Blocks to Upgrade       0x00000000
  Create in progress                  FALSE  Modified cache blocks            0
  Reference count                         1  Wait Disk                        0
  Journal State                    DISABLED
  Mutex Hard Spin Count                 128  Mutex Sleep Spin Count         128
  Mutex Queue Slots                    1024  KILLs in progress                0
  Replication State                     OFF  Region Seqno    0x0000000000000001
  Zqgblmod Seqno         0x0000000000000000  Zqgblmod Trans  0x0000000000000000
  Endian Format      ##FILTERED####ENDIAN##  Commit Wait Spin Count          16
  Database file encrypted      ##FILTERED##  Inst Freeze on Error         ##FILTERED##
  Spanning Node Absent         ##FILTERED##  Maximum Key Size Assured  ##FILTERED##
  Defer allocation             ##FILTERED##  Spin sleep time mask  ##FILTERED##
  Async IO                              OFF  WIP queue cache blocks           0
  DB is auto-created                  FALSE  DB shares gvstats             TRUE
  LOCK shares DB critical section     FALSE  Read Only                      OFF
  Recover interrupted                 FALSE
  Reorg Sleep Nanoseconds                 0
DSE> 
set global variables when null_subscripts=existing

File  	##TEST_PATH##/a.dat
Region	AREG

DSE> DSE> 
YDB>

YDB>

YDB>

YDB>

YDB>

YDB>

YDB>
use of $incr function , value = 1002
YDB>

File  	##TEST_PATH##/a.dat
Region	AREG

DSE> DSE> 
Existing null subscripts can be  read but a new one cannot be set

YDB>
1_null
YDB>
^a(1,"")="1_null"

YDB>
%YDB-E-NULSUBSC, Update failed because null subscripts are not allowed for database file: ##TEST_PATH##/a.dat
%YDB-I-GVIS, 		Global variable: ^a("")

YDB>
use of $incr function , should error out
%YDB-E-NULSUBSC, $INCREMENT() failed because null subscripts are not allowed for database file: ##TEST_PATH##/a.dat
%YDB-I-GVIS, 		Global variable: ^a("",2)

YDB>
^a("",2)=1002
^a(1,"")="1_null"
^a(1,"",1)="one_null_one"
^a(2,"")="two_null"
^a(2,"",1)="two_null_one"
^a(2,"",1,2)="two_null_one_two"

YDB>
11
YDB>

YDB>
10
YDB>

YDB>
^a("",2)=1002
^a(1,"",1)="one_null_one"
^a(2,"")="two_null"

YDB>

YDB>
%YDB-E-GVUNDEF, Global variable undefined: ^a

YDB>

check for view  undef/noundef scenario when null_subs=existing

YDB>

YDB>

YDB>

YDB>
%YDB-E-GVUNDEF, Global variable undefined: ^a(1,2,3,"")

YDB>
0
YDB>
default
YDB>

create a new 6 region gld mapping with null_sub states as follows

AREG -- > NEVER , BREG --> ALWAYS , CREG --> EXISTING , DREG --> TRUE , EREG --> FALSE

%GDE-I-GDUSEDEFS, Using defaults for Global Directory 
	##TEST_PATH##/mumps.gld

GDE> 
%GDE-I-EXECOM, Executing command file ##TEST_PATH##/multplreg.gde


                                *** REGIONS ***
                                                                                               Std      Inst
                                 Dynamic                          Def      Rec   Key Null      Null     Freeze Qdb   Epoch              LOCK
 Region                          Segment                         Coll     Size  Size Subs      Coll Jnl on Err Rndwn Taper AutoDB Stats Crit
 -------------------------------------------------------------------------------------------------------------------------------------------
 AREG                            ASEG                               0      256    64 NEVER     Y    N   N      N     Y     N      Y     Sep
 BREG                            BSEG                               0      256    64 ALWAYS    Y    N   N      N     Y     N      Y     Sep
 CREG                            CSEG                               0      256    64 EXISTING  N    N   N      N     Y     N      Y     Sep
 DEFAULT                         DEFAULT                            0      256    64 NEVER     Y    N   N      N     Y     N      Y     Sep
 DREG                            DSEG                               0      256    64 ALWAYS    Y    N   N      N     Y     N      Y     Sep
 EREG                            ESEG                               0      256    64 NEVER     Y    N   N      N     Y     N      Y     Sep
GDE> 
%GDE-I-VERIFY, Verification OK

%GDE-I-GDCREATE, Creating Global Directory file 
	##TEST_PATH##/mumps.gld

create the databases

%YDB-I-DBFILECREATED, Database file ##TEST_PATH##/a.dat created
%YDB-I-DBFILECREATED, Database file ##TEST_PATH##/b.dat created
%YDB-I-DBFILECREATED, Database file ##TEST_PATH##/c.dat created
%YDB-I-DBFILECREATED, Database file ##TEST_PATH##/mumps.dat created
%YDB-I-DBFILECREATED, Database file ##TEST_PATH##/d.dat created
%YDB-I-DBFILECREATED, Database file ##TEST_PATH##/e.dat created
AREG PASSED
BREG PASSED
CREG PASSED
DREG PASSED
EREG PASSED
DEFAULT PASSED
AREG PASSED for NULCOLLATION
CREG PASSED for NULCOLLATION

check naked reference for BREG (ALWAYS) & CREG (EXISTING)


YDB>
set  breg  globals with null_subs,naked reference should pass

YDB>

YDB>

YDB>

YDB>

YDB>
Increment function used for BREG(ALWAYS),value is 101
YDB>
^bglobalvar("",2)=101
^bglobalvar(1,"",2,3)="1NULL23"
^bglobalvar(1,"",2,"hi")="Iam naked referenced for bglobalvar"
^bglobalvar(4,5,6)="to use later"

YDB>
set creg globals with null_subs,naked reference should error out

YDB>

YDB>

YDB>
%YDB-E-NULSUBSC, Update failed because null subscripts are not allowed for database file: ##TEST_PATH##/c.dat
%YDB-I-GVIS, 		Global variable: ^cregglobalvariable("",2)

YDB>
Increment function used for CREG(EXISTING),should error out
%YDB-E-GVNAKED, Illegal naked global reference

YDB>
^cregglobalvariable(1,3)=100
^cregglobalvariable(1,45,"stringme")="I should be set"

YDB>

File  	##TEST_PATH##/a.dat
Region	AREG

DSE> 
File  	##TEST_PATH##/b.dat
Region	BREG

DSE> DSE> 
YDB>
1NULL23
YDB>
set breg globals which is now EXISTING with null_subs,naked reference should error out

YDB>
%YDB-E-NULSUBSC, Update failed because null subscripts are not allowed for database file: ##TEST_PATH##/b.dat
%YDB-I-GVIS, 		Global variable: ^bglobalvar(1,"",2,7)

YDB>
to use later
YDB>
set breg globals which is now EXISTING with null_subs,naked reference should error out

YDB>
%YDB-E-NULSUBSC, Update failed because null subscripts are not allowed for database file: ##TEST_PATH##/b.dat
%YDB-I-GVIS, 		Global variable: ^bglobalvar(4,5,"")

YDB>

check extended references

%GDE-I-GDUSEDEFS, Using defaults for Global Directory 
	##TEST_PATH##/extended.gld

GDE> 
GDE> 
GDE> 

                                *** REGIONS ***
                                                                                               Std      Inst
                                 Dynamic                          Def      Rec   Key Null      Null     Freeze Qdb   Epoch              LOCK
 Region                          Segment                         Coll     Size  Size Subs      Coll Jnl on Err Rndwn Taper AutoDB Stats Crit
 -------------------------------------------------------------------------------------------------------------------------------------------
 DEFAULT                         DEFAULT                            0      256    64 ALWAYS    Y    N   N      N     Y     N      Y     Sep
GDE> 
%GDE-I-VERIFY, Verification OK

%GDE-I-GDCREATE, Creating Global Directory file 
	##TEST_PATH##/extended.gld
%YDB-I-DBFILECREATED, Database file ##TEST_PATH##/extended.dat created

YDB>
set some null subscripted globals to extended.dat

YDB>

YDB>

YDB>
Increment function used for extended gld(ALWAYS),value = 201
YDB>

File  	##TEST_PATH##/extended.dat
Region	DEFAULT

DSE> DSE> 
YDB>
set  null subscripts to extended.dat which is existing. Should Error out

YDB>
%YDB-E-NULSUBSC, Update failed because null subscripts are not allowed for database file: ##TEST_PATH##/extended.dat
%YDB-I-GVIS, 		Global variable: ^defaultregvariable("")

YDB>
set  without null subscripts to extended.dat.This should pass

YDB>

YDB>
201
YDB>
Increment function used for extended gld(EXISTING),Should error out
%YDB-E-NULSUBSC, $INCREMENT() failed because null subscripts are not allowed for database file: ##TEST_PATH##/extended.dat
%YDB-I-GVIS, 		Global variable: ^defaultregvariable("","extended")

YDB>

YDB>
zwrite the globals in extended.dat

YDB>
^defaultregvariable("")="iam null"
^defaultregvariable("","extended")=201
^defaultregvariable(89,123)="I should be set properly"

YDB>
